module backend

go 1.14

require (
	github.com/dustin/go-broadcast v0.0.0-20171205050544-f664265f5a66
	github.com/gin-gonic/gin v1.5.0
	github.com/go-playground/universal-translator v0.17.0 // indirect
	github.com/golang/protobuf v1.3.4 // indirect
	github.com/json-iterator/go v1.1.9 // indirect
	github.com/leodido/go-urn v1.2.0 // indirect
	github.com/manucorporat/stats v0.0.0-20180402194714-3ba42d56d227
	github.com/mattn/go-isatty v0.0.12 // indirect
	github.com/modern-go/concurrent v0.0.0-20180306012644-bacd9c7ef1dd // indirect
	github.com/modern-go/reflect2 v1.0.1 // indirect
	github.com/streadway/amqp v1.0.0 // indirect
	golang.org/x/sys v0.0.0-20200223170610-d5e6a3e2c0ae // indirect
	gopkg.in/go-playground/validator.v9 v9.31.0 // indirect
	gopkg.in/yaml.v2 v2.2.8 // indirect
)
